{
  "page": 25,
  "total_results": 10000,
  "total_pages": 500,
  "results": [
      {
          "popularity": 24.122,
          "id": 699,
          "video": false,
          "vote_count": 1042,
          "vote_average": 6.5,
          "title": "For Your Eyes Only",
          "release_date": "1981-06-23",
          "original_language": "en",
          "original_title": "For Your Eyes Only",
          "genre_ids": [
              12,
              28,
              53
          ],
          "backdrop_path": "/6Yh8XnVI5J3hWMiO4ewpn2FjRMA.jpg",
          "adult": false,
          "overview": "A British spy ship has sunk and on board was a hi-tech encryption device. James Bond is sent to find the device that holds British launching instructions before the enemy Soviets get to it first.",
          "poster_path": "/rIbhuS2xBHDYWAriFxLABlK2LZV.jpg"
      },
      {
          "popularity": 30.108,
          "vote_count": 1104,
          "video": false,
          "poster_path": "/fePczipv6ZzDO2uoww4vTAu2Sq3.jpg",
          "id": 581600,
          "adult": false,
          "backdrop_path": "/ftODZXaXpWtV5XFD8gS9n9KwLDr.jpg",
          "original_language": "en",
          "original_title": "Spenser Confidential",
          "genre_ids": [
              28,
              35,
              53
          ],
          "title": "Spenser Confidential",
          "vote_average": 6.7,
          "overview": "Spenser, a former Boston patrolman who just got out from prison, teams up with Hawk, an aspiring fighter, to unravel the truth behind the death of two police officers.",
          "release_date": "2020-03-06"
      },
      {
          "popularity": 20.78,
          "vote_count": 4135,
          "video": false,
          "poster_path": "/xA7N41glw17MBQtcWSm2eBlBRuG.jpg",
          "id": 324668,
          "adult": false,
          "backdrop_path": "/7mHeyU0a538bgguOeF57I8ZroSk.jpg",
          "original_language": "en",
          "original_title": "Jason Bourne",
          "genre_ids": [
              28,
              53
          ],
          "title": "Jason Bourne",
          "vote_average": 6.2,
          "overview": "The most dangerous former operative of the CIA is drawn out of hiding to uncover hidden truths about his past.",
          "release_date": "2016-07-27"
      },
      {
          "popularity": 27.347,
          "vote_count": 18,
          "video": false,
          "poster_path": "/yS41crZ1i0fFxCQbuL7I1Y1VBwm.jpg",
          "id": 558582,
          "adult": false,
          "backdrop_path": "/owdreZiMcBz9y4ayfyLRddpWYR6.jpg",
          "original_language": "en",
          "original_title": "First Cow",
          "genre_ids": [
              18,
              36
          ],
          "title": "First Cow",
          "vote_average": 7.4,
          "overview": "A taciturn loner and skilled cook has traveled west and joined a group of fur trappers in Oregon Territory, though he only finds true connection with a Chinese immigrant also seeking his fortune; soon the two collaborate on a successful business, although its longevity is reliant upon the clandestine participation of a nearby wealthy landowner’s prized milking cow.",
          "release_date": "2020-03-06"
      },
      {
          "popularity": 27.67,
          "vote_count": 5242,
          "video": false,
          "poster_path": "/brzpTyZ5bnM7s53C1KSk1TmrMO6.jpg",
          "id": 32657,
          "adult": false,
          "backdrop_path": "/sEyNWq9985lyUrwayWnvicT4FHA.jpg",
          "original_language": "en",
          "original_title": "Percy Jackson & the Olympians: The Lightning Thief",
          "genre_ids": [
              12,
              14,
              10751
          ],
          "title": "Percy Jackson & the Olympians: The Lightning Thief",
          "vote_average": 6.2,
          "overview": "Accident prone teenager, Percy discovers he's actually a demi-God, the son of Poseidon, and he is needed when Zeus' lightning is stolen. Percy must master his new found skills in order to prevent a war between the Gods that could devastate the entire world.",
          "release_date": "2010-02-01"
      },
      {
          "popularity": 32.196,
          "vote_count": 18,
          "video": false,
          "poster_path": "/q2lkJf1TAjImTHCEO7XvbqPtnPb.jpg",
          "id": 703134,
          "adult": false,
          "backdrop_path": "/j57oUw8LIYvjOl0zs3A1A1UqwKH.jpg",
          "original_language": "en",
          "original_title": "Infamous",
          "genre_ids": [
              80,
              18,
              53
          ],
          "title": "Infamous",
          "vote_average": 5.6,
          "overview": "Two young lovers rob their way across the southland, posting their exploits to social media, and gaining fame and followers as a result.",
          "release_date": "2020-06-12"
      },
      {
          "popularity": 25.553,
          "vote_count": 303,
          "video": false,
          "poster_path": "/8GGS0jkFFCnmdStvZED6NL6V7gd.jpg",
          "id": 502425,
          "adult": false,
          "backdrop_path": "/kolkVKNZSjhZGHwcrFU36Watpke.jpg",
          "original_language": "en",
          "original_title": "Escape From Pretoria",
          "genre_ids": [
              18,
              36,
              53
          ],
          "title": "Escape From Pretoria",
          "vote_average": 7.2,
          "overview": "South Africa, 1978. Tim Jenkin and Stephen Lee, two white political activists from the African National Congress imprisoned by the apartheid regime, put a plan in motion to escape from the infamous Pretoria Prison.",
          "release_date": "2020-03-06"
      },
      {
          "popularity": 23.934,
          "vote_count": 298,
          "video": false,
          "poster_path": "/rsUs58bDqpJJxZSOebZOMN9gzw2.jpg",
          "id": 506528,
          "adult": false,
          "backdrop_path": "/7o4MsDcZIqIApcApMUq1fPhkkA1.jpg",
          "original_language": "en",
          "original_title": "Harriet",
          "genre_ids": [
              18,
              36
          ],
          "title": "Harriet",
          "vote_average": 7.3,
          "overview": "The extraordinary tale of Harriet Tubman's escape from slavery and transformation into one of America's greatest heroes. Her courage, ingenuity and tenacity freed hundreds of slaves and changed the course of history.",
          "release_date": "2019-11-01"
      },
      {
          "popularity": 21.982,
          "vote_count": 4255,
          "video": false,
          "poster_path": "/5YUYg5q7QfC4IoNwNUtiwdiYKPr.jpg",
          "id": 449176,
          "adult": false,
          "backdrop_path": "/rqMEeajyzSF4PpJtdCB816Iz8Vr.jpg",
          "original_language": "en",
          "original_title": "Love, Simon",
          "genre_ids": [
              35,
              18,
              10749
          ],
          "title": "Love, Simon",
          "vote_average": 8.1,
          "overview": "Everyone deserves a great love story. But for seventeen-year old Simon Spier it's a little more complicated: he's yet to tell his family or friends he's gay and he doesn't know the identity of the anonymous classmate he's fallen for online.",
          "release_date": "2018-02-16"
      },
      {
          "popularity": 27.499,
          "vote_count": 564,
          "video": false,
          "poster_path": "/4w1ItwCJCTtSi9nPfJC1vU6NIVg.jpg",
          "id": 413518,
          "adult": false,
          "backdrop_path": "/AdqOBPw4PdtzOcfEuQuZ8MNeTKb.jpg",
          "original_language": "it",
          "original_title": "Pinocchio",
          "genre_ids": [
              12,
              18,
              14,
              10751
          ],
          "title": "Pinocchio",
          "vote_average": 6.9,
          "overview": "Live-action adaptation of the classic story of a wooden puppet named Pinocchio who comes to life.",
          "release_date": "2019-12-19"
      },
      {
          "popularity": 25.173,
          "vote_count": 7642,
          "video": false,
          "poster_path": "/d9jZ2bKZw3ptTuxAyVHA6olPAVs.jpg",
          "id": 168259,
          "adult": false,
          "backdrop_path": "/ehzI1mVcnHqB58NqPyQwpMqcVoz.jpg",
          "original_language": "en",
          "original_title": "Furious 7",
          "genre_ids": [
              28,
              53
          ],
          "title": "Furious 7",
          "vote_average": 7.3,
          "overview": "Deckard Shaw seeks revenge against Dominic Toretto and his family for his comatose brother.",
          "release_date": "2015-04-01"
      },
      {
          "popularity": 20.164,
          "vote_count": 944,
          "video": false,
          "poster_path": "/tximyCXMEnWIIyOy9STkOduUprG.jpg",
          "id": 521777,
          "adult": false,
          "backdrop_path": "/lZbpGWA1P8k7P6MJXdMDDDS01z9.jpg",
          "original_language": "en",
          "original_title": "Good Boys",
          "genre_ids": [
              35
          ],
          "title": "Good Boys",
          "vote_average": 6.8,
          "overview": "A group of young boys on the cusp of becoming teenagers embark on an epic quest to fix their broken drone before their parents get home.",
          "release_date": "2019-08-14"
      },
      {
          "popularity": 28.563,
          "vote_count": 2267,
          "video": false,
          "poster_path": "/qOTcfD2DdnOTmhH0r1TOE09VvNh.jpg",
          "id": 32856,
          "adult": false,
          "backdrop_path": "/8f1VuWC6NVVJZgdielROEjCmI1N.jpg",
          "original_language": "en",
          "original_title": "Valentine's Day",
          "genre_ids": [
              35,
              10749
          ],
          "title": "Valentine's Day",
          "vote_average": 5.9,
          "overview": "More than a dozen Angelenos navigate Valentine's Day from early morning until midnight. Three couples awake together, but each relationship will sputter. A grade-school boy wants flowers for his first true love. Two high school seniors plan first-time sex at noon. A TV sports reporter gets the assignment to find romance in LA. A star quarterback contemplates his future. Two strangers meet on a plane. Grandparents, together for years, face a crisis. An 'I Hate Valentine's Day' dinner beckons the lonely and the lied to.",
          "release_date": "2010-02-10"
      },
      {
          "popularity": 21.525,
          "vote_count": 3550,
          "video": false,
          "poster_path": "/i9GUSgddIqrroubiLsvvMRYyRy0.jpg",
          "id": 353491,
          "adult": false,
          "backdrop_path": "/pVVobDO8cezhVPvwD6EBUN0g3mt.jpg",
          "original_language": "en",
          "original_title": "The Dark Tower",
          "genre_ids": [
              28,
              12,
              14,
              878
          ],
          "title": "The Dark Tower",
          "vote_average": 5.7,
          "overview": "The last Gunslinger, Roland Deschain, has been locked in an eternal battle with Walter O’Dim, also known as the Man in Black, determined to prevent him from toppling the Dark Tower, which holds the universe together. With the fate of the worlds at stake, good and evil will collide in the ultimate battle as only Roland can defend the Tower from the Man in Black.",
          "release_date": "2017-08-03"
      },
      {
          "popularity": 29.21,
          "vote_count": 8475,
          "video": false,
          "poster_path": "/dUkAmAyPVqubSBNRjRqCgHggZcK.jpg",
          "id": 19908,
          "adult": false,
          "backdrop_path": "/oihWVx3imvRKujnGmSDYhfG1gI5.jpg",
          "original_language": "en",
          "original_title": "Zombieland",
          "genre_ids": [
              35,
              27
          ],
          "title": "Zombieland",
          "vote_average": 7.2,
          "overview": "Columbus has made a habit of running from what scares him. Tallahassee doesn't have fears. If he did, he'd kick their ever-living ass. In a world overrun by zombies, these two are perfectly evolved survivors. But now, they're about to stare down the most terrifying prospect of all: each other.",
          "release_date": "2009-10-07"
      },
      {
          "popularity": 24.414,
          "id": 140300,
          "video": false,
          "vote_count": 3608,
          "vote_average": 6.8,
          "title": "Kung Fu Panda 3",
          "release_date": "2016-01-23",
          "original_language": "en",
          "original_title": "Kung Fu Panda 3",
          "genre_ids": [
              28,
              12,
              16,
              35,
              10751
          ],
          "backdrop_path": "/jGM7EEYZ5A2cSGbplKX3l5iQs2V.jpg",
          "adult": false,
          "overview": "Continuing his \"legendary adventures of awesomeness\", Po must face two hugely epic, but different threats: one supernatural and the other a little closer to his home.",
          "poster_path": "/nlr2oxuYsHXt0wdtmzaOuVBoNC0.jpg"
      },
      {
          "popularity": 25.865,
          "vote_count": 8354,
          "video": false,
          "poster_path": "/vVJRemwt0WyqnwLMIAaa2FNZBME.jpg",
          "id": 324786,
          "adult": false,
          "backdrop_path": "/6O0lsCK90jZCyPvyYSt8Szzlnd6.jpg",
          "original_language": "en",
          "original_title": "Hacksaw Ridge",
          "genre_ids": [
              18,
              36,
              10752
          ],
          "title": "Hacksaw Ridge",
          "vote_average": 8.1,
          "overview": "WWII American Army Medic Desmond T. Doss, who served during the Battle of Okinawa, refuses to kill people and becomes the first Conscientious Objector in American history to receive the Congressional Medal of Honor.",
          "release_date": "2016-10-07"
      },
      {
          "popularity": 28.552,
          "id": 89,
          "video": false,
          "vote_count": 6563,
          "vote_average": 7.8,
          "title": "Indiana Jones and the Last Crusade",
          "release_date": "1989-05-24",
          "original_language": "en",
          "original_title": "Indiana Jones and the Last Crusade",
          "genre_ids": [
              12,
              28
          ],
          "backdrop_path": "/267Mdb5i1AXuVN64DhVEOUPmM25.jpg",
          "adult": false,
          "overview": "When Dr. Henry Jones Sr. suddenly goes missing while pursuing the Holy Grail, eminent archaeologist Indiana must team up with Marcus Brody, Sallah and Elsa Schneider to follow in his father's footsteps and stop the Nazis from recovering the power of eternal life.",
          "poster_path": "/sizg1AU8f8JDZX4QIgE4pjUMBvx.jpg"
      },
      {
          "popularity": 25.31,
          "vote_count": 3746,
          "video": false,
          "poster_path": "/2oRRTPNtozgPhOa9CYZiVl4GRQ5.jpg",
          "id": 396535,
          "adult": false,
          "backdrop_path": "/jpdgqnUBpsb099uSnj8A6UEOQCC.jpg",
          "original_language": "ko",
          "original_title": "부산행",
          "genre_ids": [
              28,
              27,
              53
          ],
          "title": "Train to Busan",
          "vote_average": 7.7,
          "overview": "Martial law is declared when a mysterious viral outbreak pushes Korea into a state of emergency. Those on an express train to Busan, a city that has successfully fended off the viral outbreak, must fight for their own survival…",
          "release_date": "2016-07-20"
      },
      {
          "popularity": 25.299,
          "vote_count": 1588,
          "video": false,
          "poster_path": "/fEXxILY3zm8821sEMSHrD1rjMe.jpg",
          "id": 10734,
          "adult": false,
          "backdrop_path": "/vYJUDLyNG6KcGXdELFFUJWUXNjV.jpg",
          "original_language": "en",
          "original_title": "Escape from Alcatraz",
          "genre_ids": [
              80,
              18
          ],
          "title": "Escape from Alcatraz",
          "vote_average": 7.5,
          "overview": "Escape from Alcatraz tells the story of the only three men ever to escape from the infamous maximum security prison at Alcatraz. In 29 years, the seemingly impenetrable federal penitentiary, which housed Al Capone and \"Birdman\" Robert Stroud, was only broken once - by three men never heard of again.",
          "release_date": "1979-01-25"
      }
  ]
}